dataset_name,dataset_id,date,species,pressure,r_bw,co2_a,ppfd,T_leaf,e_a,co2_i,co2_assim,g_sw,transpiration,cos_assim,cos_a,vmax,is_c4
,,,,Pa,m2 s1 mol-1,ppm,µmol m-2 s-1,C,Pa,ppm,µmol m-2 s-1,mol m-2 s-1,mol m-2 s-1,pmol m-2 s-1,pmol mol-1,µmol m-2 s-1,
amaranthus-light,1,2008-07-09,Amaranthus cruentus,99867,0.615,468.04,55,21.5,1266.6,380.28,0.74,0.0152229,0.0002016,2.48,964.92,28.02,1
amaranthus-light,1,2008-07-09,Amaranthus cruentus,99867,0.615,468.04,55,21.5,1266.6,380.28,0.74,0.0152229,0.0002016,5.69,886.21,28.02,1
amaranthus-light,1,2008-07-09,Amaranthus cruentus,99865,0.615,450.91,91,21.6,1412.9,338.98,1.41,0.0219357,0.0002621,6.27,871.38,28.02,1
amaranthus-light,1,2008-07-09,Amaranthus cruentus,99865,0.615,450.91,91,21.6,1412.9,338.98,1.41,0.0219357,0.0002621,9.11,801.40,28.02,1
amaranthus-light,1,2008-07-09,Amaranthus cruentus,99867,0.615,400.61,179,21.9,1684.5,251.50,3.42,0.0387722,0.0003747,9.69,786.74,28.02,1
amaranthus-light,1,2008-07-09,Amaranthus cruentus,99867,0.615,400.61,179,21.9,1684.5,251.50,3.42,0.0387722,0.0003747,11.41,744.33,28.02,1
amaranthus-light,1,2008-07-09,Amaranthus cruentus,99809,0.615,348.11,376,22.2,1932.0,198.17,7.73,0.0883694,0.0006688,14.23,774.69,28.02,1
amaranthus-light,1,2008-07-09,Amaranthus cruentus,99809,0.615,348.11,376,22.2,1932.0,198.17,7.73,0.0883694,0.0006688,18.27,703.49,28.02,1
amaranthus-light,1,2008-07-09,Amaranthus cruentus,99781,0.615,336.10,524,22.3,2070.0,214.02,9.58,0.1379654,0.0008561,23.29,665.79,28.02,1
amaranthus-light,1,2008-07-09,Amaranthus cruentus,99781,0.615,336.10,524,22.4,2070.0,210.27,9.57,0.1334850,0.0008558,28.43,586.39,28.02,1
amaranthus-light,1,2008-07-09,Amaranthus cruentus,99705,0.615,316.63,1179,23.1,2260.8,204.67,13.45,0.2195444,0.0012260,35.53,583.77,28.02,1
amaranthus-light,1,2008-07-09,Amaranthus cruentus,99705,0.615,316.63,1179,23.1,2260.8,204.67,13.45,0.2195444,0.0012260,34.13,601.22,28.02,1
amaranthus-light,1,2008-07-09,Amaranthus cruentus,99657,0.615,316.82,1889,24.2,2449.7,216.11,15.64,0.2950081,0.0016192,42.54,608.03,28.02,1
amaranthus-light,1,2008-07-09,Amaranthus cruentus,99657,0.615,316.82,1889,24.2,2449.7,216.11,15.64,0.2950081,0.0016192,43.60,597.56,28.02,1
amaranthus-light,1,2008-07-10,Amaranthus cruentus,99861,0.615,493.45,55,21.5,1629.6,448.64,0.87,0.0378089,0.0003595,8.90,899.83,28.02,1
amaranthus-light,1,2008-07-10,Amaranthus cruentus,99861,0.615,493.45,55,21.5,1629.6,448.64,0.87,0.0378089,0.0003595,9.80,876.79,28.02,1
amaranthus-light,1,2008-07-10,Amaranthus cruentus,99867,0.615,473.32,91,21.5,1670.2,399.28,1.65,0.0399605,0.0003756,10.16,867.36,28.02,1
amaranthus-light,1,2008-07-10,Amaranthus cruentus,99867,0.615,473.32,91,21.5,1670.2,399.28,1.65,0.0399605,0.0003756,17.10,687.96,28.02,1
amaranthus-light,1,2008-07-10,Amaranthus cruentus,99854,0.615,419.32,179,21.6,1828.8,307.22,4.17,0.0642380,0.0004911,17.08,735.43,28.02,1
amaranthus-light,1,2008-07-10,Amaranthus cruentus,99854,0.615,419.32,179,21.6,1828.8,307.22,4.17,0.0642380,0.0004911,22.13,618.85,28.02,1
amaranthus-light,1,2008-07-10,Amaranthus cruentus,99811,0.615,360.01,376,21.9,1941.6,210.93,8.43,0.0972605,0.0006763,27.74,616.40,28.02,1
amaranthus-light,1,2008-07-10,Amaranthus cruentus,99811,0.615,360.01,376,21.9,1941.6,210.93,8.42,0.0971928,0.0006758,29.63,581.15,28.02,1
amaranthus-light,1,2008-07-10,Amaranthus cruentus,99796,0.615,339.27,524,22.2,2122.8,218.86,10.32,0.1514723,0.0008428,36.11,512.91,28.02,1
amaranthus-light,1,2008-07-10,Amaranthus cruentus,99796,0.615,339.27,524,22.2,2122.8,218.86,10.32,0.1514723,0.0008428,37.51,489.01,28.02,1
amaranthus-light,1,2008-07-10,Amaranthus cruentus,99677,0.615,334.48,1179,22.5,2309.1,248.84,14.67,0.3303587,0.0013300,48.47,533.51,28.02,1
amaranthus-light,1,2008-07-10,Amaranthus cruentus,99677,0.615,334.48,1179,22.5,2309.1,248.84,14.67,0.3303587,0.0013300,50.42,509.42,28.02,1
amaranthus-light,1,2008-07-10,Amaranthus cruentus,99632,0.615,325.04,1889,23.8,2471.1,235.61,16.81,0.3687133,0.0016021,58.58,469.11,28.02,1
amaranthus-light,1,2008-07-10,Amaranthus cruentus,99632,0.615,325.04,1889,23.8,2471.1,235.61,16.81,0.3687133,0.0016021,57.45,481.85,28.02,1
corn-light,2,2008-06-19,Zea mays,100050,0.615,462.39,55,22.1,1997.9,436.45,1.03,0.0825367,0.0005537,9.83,470.45,43.87,1
corn-light,2,2008-06-19,Zea mays,100050,0.615,462.39,55,22.1,1997.9,436.45,1.03,0.0825367,0.0005537,10.04,465.76,43.87,1
corn-light,2,2008-06-19,Zea mays,100040,0.615,445.39,91,22.0,1960.2,402.06,1.80,0.0778154,0.0005365,9.88,469.28,43.87,1
corn-light,2,2008-06-19,Zea mays,100040,0.615,445.39,91,22.0,1960.2,402.06,1.80,0.0778154,0.0005365,10.58,453.25,43.87,1
corn-light,2,2008-06-19,Zea mays,100020,0.615,395.23,179,22.1,1993.8,309.04,4.22,0.0858480,0.0005791,12.14,430.95,43.87,1
corn-light,2,2008-06-19,Zea mays,100020,0.615,395.23,179,22.1,1993.8,309.04,4.22,0.0858480,0.0005791,13.54,400.45,43.87,1
corn-light,2,2008-06-19,Zea mays,99969,0.615,342.44,352,22.3,2044.0,217.36,8.72,0.1217599,0.0007888,18.90,380.50,43.87,1
corn-light,2,2008-06-19,Zea mays,99969,0.615,342.44,352,22.3,2044.0,217.36,8.72,0.1217599,0.0007888,18.85,381.29,43.87,1
corn-light,2,2008-06-19,Zea mays,99880,0.615,319.95,524,22.4,2152.1,203.68,11.88,0.1833286,0.0010114,29.32,281.56,43.87,1
corn-light,2,2008-06-19,Zea mays,99880,0.615,319.95,524,22.4,2152.1,203.68,11.88,0.1833286,0.0010114,26.68,318.71,43.87,1
corn-light,2,2008-06-19,Zea mays,99589,0.615,287.64,1179,22.7,2357.3,190.36,19.49,0.3949690,0.0016072,39.46,290.55,43.87,1
corn-light,2,2008-06-19,Zea mays,99589,0.615,287.64,1179,22.7,2357.3,190.36,19.49,0.3949690,0.0016072,38.89,296.42,43.87,1
corn-light,2,2008-06-19,Zea mays,99579,0.615,268.26,1889,23.4,2583.1,199.73,23.62,0.7993896,0.0020334,45.37,274.52,43.87,1
corn-light,2,2008-06-19,Zea mays,99579,0.615,268.26,1889,23.4,2583.1,199.73,23.62,0.7993896,0.0020334,45.58,272.57,43.87,1
corn-light,2,2008-06-19,Zea mays,100180,0.615,461.22,55,22.1,1874.7,422.39,1.04,0.0518264,0.0004144,10.00,482.97,43.87,1
corn-light,2,2008-06-19,Zea mays,100180,0.615,461.22,55,22.1,1874.7,422.39,1.04,0.0518264,0.0004144,9.31,499.39,43.87,1
corn-light,2,2008-06-19,Zea mays,100170,0.615,441.05,91,22.0,1890.2,375.34,1.90,0.0517122,0.0004212,11.40,449.73,43.87,1
corn-light,2,2008-06-19,Zea mays,100170,0.615,441.05,91,22.0,1890.2,375.34,1.90,0.0517122,0.0004212,11.02,458.72,43.87,1
corn-light,2,2008-06-19,Zea mays,100110,0.615,396.58,179,22.2,1988.3,296.36,4.30,0.0743670,0.0005294,13.98,429.39,43.87,1
corn-light,2,2008-06-19,Zea mays,100110,0.615,396.58,179,22.2,1988.3,296.36,4.30,0.0743670,0.0005294,13.79,433.30,43.87,1
corn-light,2,2008-06-19,Zea mays,99935,0.615,360.84,352,22.3,2144.3,264.51,9.72,0.1826945,0.0009857,25.62,391.06,43.87,1
corn-light,2,2008-06-19,Zea mays,99935,0.615,360.84,352,22.3,2144.3,264.51,9.72,0.1826945,0.0009857,25.89,387.54,43.87,1
corn-light,2,2008-06-19,Zea mays,99796,0.615,319.87,524,22.6,2325.3,232.41,16.82,0.3779692,0.0014787,39.42,331.62,43.87,1
corn-light,2,2008-06-19,Zea mays,99796,0.615,319.87,524,22.6,2325.3,232.41,16.82,0.3779692,0.0014787,40.53,320.67,43.87,1
corn-light,2,2008-06-19,Zea mays,99593,0.615,303.13,1179,23.0,2443.7,222.30,21.66,0.5703268,0.0018834,47.53,319.89,43.87,1
corn-light,2,2008-06-19,Zea mays,99593,0.615,303.13,1179,23.0,2443.7,222.30,21.66,0.5703268,0.0018834,47.07,323.80,43.87,1
corn-light,2,2008-06-19,Zea mays,99510,0.615,278.30,1889,23.4,2694.2,231.72,26.65,1.8483754,0.0023849,58.73,264.35,43.87,1
corn-light,2,2008-06-19,Zea mays,99510,0.615,278.30,1889,23.4,2694.2,231.72,26.65,1.8483754,0.0023849,58.33,267.48,43.87,1
hibiscus-light,3,2008-07-24,Hibiscus rosa-sinensis,99835,0.615,471.76,55,21.8,1347.5,384.21,2.02,0.0420489,0.0005385,3.97,314.10,61.00,0
hibiscus-light,3,2008-07-24,Hibiscus rosa-sinensis,99835,0.615,471.76,55,21.8,1347.5,384.21,2.02,0.0420489,0.0005385,4.80,301.36,61.00,0
hibiscus-light,3,2008-07-24,Hibiscus rosa-sinensis,99814,0.615,452.72,91,21.8,1340.0,331.47,3.26,0.0471547,0.0005765,7.71,257.03,61.00,0
hibiscus-light,3,2008-07-24,Hibiscus rosa-sinensis,99782,0.615,424.25,179,21.9,1692.2,255.92,5.76,0.0587847,0.0006934,9.15,250.40,61.00,0
hibiscus-light,3,2008-07-24,Hibiscus rosa-sinensis,99782,0.615,424.25,179,21.9,1692.2,255.92,5.76,0.0587847,0.0006934,11.60,217.24,61.00,0
hibiscus-light,3,2008-07-24,Hibiscus rosa-sinensis,99779,0.615,398.57,352,22.2,1873.7,289.93,9.22,0.1534290,0.0012253,16.25,194.03,61.00,0
hibiscus-light,3,2008-07-24,Hibiscus rosa-sinensis,99779,0.615,398.57,352,22.2,1873.7,289.93,9.22,0.1534290,0.0012253,18.05,173.96,61.00,0
hibiscus-light,3,2008-07-24,Hibiscus rosa-sinensis,99747,0.615,402.05,524,22.4,2010.0,278.30,9.91,0.1451096,0.0015146,17.25,203.46,61.00,0
hibiscus-light,3,2008-07-24,Hibiscus rosa-sinensis,99747,0.615,402.05,524,22.4,2010.0,278.30,9.91,0.1451096,0.0015146,18.16,194.38,61.00,0
hibiscus-light,3,2008-07-24,Hibiscus rosa-sinensis,99782,0.615,404.21,1179,23.0,1947.0,299.41,9.18,0.1598579,0.0013667,16.82,197.87,61.00,0
hibiscus-light,3,2008-07-24,Hibiscus rosa-sinensis,99782,0.615,404.21,1179,23.0,1947.0,299.41,9.18,0.1598579,0.0013667,16.95,196.48,61.00,0
hibiscus-light,3,2008-07-24,Hibiscus rosa-sinensis,99771,0.615,402.12,1889,24.4,2173.0,307.30,9.77,0.1926699,0.0016758,16.28,212.01,61.00,0
hibiscus-light,3,2008-07-24,Hibiscus rosa-sinensis,99771,0.615,402.12,1889,24.4,2173.0,307.30,9.77,0.1926699,0.0016758,18.29,191.94,61.00,0
sage-light-a,4,2007-11-11,Salvia 'Indigo spires',100846,0.615,446.09,55,20.4,1334.0,350.04,3.62,0.0678210,0.0007695,46.83,1836.29,79.30,0
sage-light-a,4,2007-11-11,Salvia 'Indigo spires',100846,0.615,446.06,55,20.8,1434.8,360.74,3.60,0.0766816,0.0008299,33.09,2065.57,79.30,0
sage-light-a,4,2007-11-11,Salvia 'Indigo spires',100840,0.615,417.91,91,21.0,1703.3,337.43,5.80,0.1322973,0.0011033,42.19,1983.24,79.30,0
sage-light-a,4,2007-11-11,Salvia 'Indigo spires',100836,0.615,419.26,91,21.0,1687.3,334.07,5.72,0.1225664,0.0010924,33.25,2118.20,79.30,0
sage-light-a,4,2007-11-11,Salvia 'Indigo spires',100842,0.615,354.44,179,21.8,2150.1,236.71,9.87,0.1507736,0.0013936,74.89,1486.65,79.30,0
sage-light-a,4,2007-11-11,Salvia 'Indigo spires',100848,0.615,352.60,179,21.8,2179.9,242.26,9.98,0.1638763,0.0014138,104.20,1043.21,79.30,0
sage-light-a,4,2007-11-11,Salvia 'Indigo spires',100814,0.615,304.04,352,22.3,2322.5,183.13,15.39,0.2352468,0.0017613,91.85,1426.20,79.30,0
sage-light-a,4,2007-11-11,Salvia 'Indigo spires',100813,0.615,302.11,352,22.4,2351.1,169.71,15.50,0.2140703,0.0017804,105.77,1244.86,79.30,0
sage-light-a,4,2007-11-11,Salvia 'Indigo spires',100825,0.615,291.18,524,22.5,2446.7,159.50,16.30,0.2275573,0.0018530,88.15,1473.62,79.30,0
sage-light-a,4,2007-11-11,Salvia 'Indigo spires',100810,0.615,290.29,524,22.5,2462.9,161.32,16.37,0.2339674,0.0018659,84.33,1523.12,79.30,0
sage-light-a,4,2007-11-11,Salvia 'Indigo spires',100811,0.615,279.30,1179,23.4,2702.6,177.98,17.15,0.3261323,0.0020541,98.10,1340.22,79.30,0
sage-light-a,4,2007-11-11,Salvia 'Indigo spires',100815,0.615,278.74,1179,23.7,2719.1,168.92,17.17,0.2971489,0.0020645,111.13,1168.79,79.30,0
sage-light-a,4,2007-11-11,Salvia 'Indigo spires',100813,0.615,274.50,1889,24.3,2802.9,152.68,17.43,0.2681004,0.0021248,91.75,1419.43,79.30,0
sage-light-a,4,2007-11-11,Salvia 'Indigo spires',100828,0.615,274.09,1889,24.3,2815.3,159.77,17.46,0.2891325,0.0021346,100.45,1305.83,79.30,0
sage-light-b,5,2008-07-21,Salvia 'Indigo spires',99914,0.615,517.06,55,21.9,1270.0,349.37,2.63,0.0270010,0.0003745,4.78,435.22,27.29,0
sage-light-b,5,2008-07-21,Salvia 'Indigo spires',99914,0.615,517.06,55,21.9,1270.0,349.37,2.63,0.0270010,0.0003745,6.54,410.09,27.29,0
sage-light-b,5,2008-07-21,Salvia 'Indigo spires',99918,0.615,497.06,91,22.0,1518.0,355.25,3.95,0.0484582,0.0005525,10.59,352.50,27.29,0
sage-light-b,5,2008-07-21,Salvia 'Indigo spires',99871,0.615,469.72,179,22.2,1780.0,346.39,6.56,0.0940817,0.0008460,14.37,322.65,27.29,0
sage-light-b,5,2008-07-21,Salvia 'Indigo spires',99871,0.615,469.72,179,22.2,1780.0,346.39,6.56,0.0940817,0.0008460,17.87,278.68,27.29,0
sage-light-b,5,2008-07-21,Salvia 'Indigo spires',98938,0.615,460.75,376,22.6,1927.4,351.52,7.78,0.1283348,0.0010513,18.43,288.10,27.29,0
sage-light-b,5,2008-07-21,Salvia 'Indigo spires',98938,0.615,460.75,376,22.6,1927.4,351.52,7.78,0.1283348,0.0010513,19.41,276.58,27.29,0
sage-light-b,5,2008-07-21,Salvia 'Indigo spires',99835,0.615,466.51,524,22.7,2063.6,386.05,7.29,0.1687013,0.0011654,17.00,306.42,27.29,0
sage-light-b,5,2008-07-21,Salvia 'Indigo spires',99835,0.615,466.51,524,22.7,2063.6,386.05,7.29,0.1687013,0.0011654,20.11,270.47,27.29,0
sage-light-b,5,2008-07-21,Salvia 'Indigo spires',99801,0.615,470.81,1175,23.6,2250.0,405.37,7.55,0.2240736,0.0014717,20.44,288.97,27.29,0
sage-light-b,5,2008-07-21,Salvia 'Indigo spires',99801,0.615,470.81,1175,23.6,2250.0,405.37,7.55,0.2240736,0.0014717,23.11,261.05,27.29,0
sage-light-b,5,2008-07-21,Salvia 'Indigo spires',99769,0.615,468.61,1889,24.8,2473.9,411.04,8.18,0.2874365,0.0018142,22.59,281.64,27.29,0
sage-light-b,5,2008-07-21,Salvia 'Indigo spires',99769,0.615,468.61,1889,24.8,2473.9,411.04,8.18,0.2874365,0.0018142,18.84,318.47,27.29,0
sage-light-c,6,2008-07-24,Salvia 'Indigo spires',99871,0.615,489.23,55,21.5,1353.2,429.55,1.66,0.0541954,0.0006734,2.12,348.83,26.80,0
sage-light-c,6,2008-07-24,Salvia 'Indigo spires',99871,0.615,489.23,55,21.5,1353.2,429.55,1.66,0.0541954,0.0006734,6.34,297.35,26.80,0
sage-light-c,6,2008-07-24,Salvia 'Indigo spires',99312,0.615,471.32,91,21.7,1487.0,385.69,3.08,0.0657717,0.0007561,8.57,269.60,26.80,0
sage-light-c,6,2008-07-24,Salvia 'Indigo spires',99312,0.615,471.32,91,21.7,1487.0,385.69,3.08,0.0657717,0.0007561,8.50,270.47,26.80,0
sage-light-c,6,2008-07-24,Salvia 'Indigo spires',99831,0.615,446.25,179,22.0,1750.9,367.07,5.39,0.1255614,0.0010753,10.94,249.53,26.80,0
sage-light-c,6,2008-07-24,Salvia 'Indigo spires',99831,0.615,446.25,179,22.0,1750.9,367.07,5.39,0.1255614,0.0010753,10.20,257.91,26.80,0
sage-light-c,6,2008-07-24,Salvia 'Indigo spires',99831,0.615,439.76,376,22.6,1902.7,368.54,5.90,0.1551576,0.0012102,13.76,216.90,26.80,0
sage-light-c,6,2008-07-24,Salvia 'Indigo spires',99831,0.615,439.76,376,22.6,1902.7,368.54,5.90,0.1551576,0.0012102,14.72,205.90,26.80,0
sage-light-c,6,2008-07-24,Salvia 'Indigo spires',99826,0.615,437.42,524,22.8,2019.0,377.42,6.05,0.1936583,0.0013147,13.41,220.91,26.80,0
sage-light-c,6,2008-07-24,Salvia 'Indigo spires',99826,0.615,437.42,524,22.8,2019.0,377.42,6.05,0.1936583,0.0013147,14.89,203.98,26.80,0
sage-light-c,6,2008-07-24,Salvia 'Indigo spires',99816,0.615,442.16,1175,24.1,2187.9,392.53,6.42,0.2613016,0.0016936,16.22,213.40,26.80,0
sage-light-c,6,2008-07-24,Salvia 'Indigo spires',99816,0.615,442.16,1175,24.1,2187.9,392.46,6.59,0.2689482,0.0017393,19.34,187.40,26.80,0
sage-light-c,6,2008-07-24,Salvia 'Indigo spires',99769,0.615,444.62,1889,25.1,2420.0,405.08,6.93,0.3826780,0.0022179,18.07,217.59,26.80,0
sage-light-c,6,2008-07-24,Salvia 'Indigo spires',99769,0.615,444.62,1889,25.1,2420.0,405.08,6.93,0.3826780,0.0022179,19.13,208.34,26.80,0
sage-light-d,7,2008-11-06,Salvia 'Indigo spires',100940,0.615,477.02,55,22.9,796.1,356.07,1.58,0.0238427,0.0004784,12.77,695.55,72.10,0
sage-light-d,7,2008-11-06,Salvia 'Indigo spires',100940,0.615,459.14,91,23.0,1117.8,339.83,2.79,0.0421204,0.0007152,19.87,598.38,72.10,0
sage-light-d,7,2008-11-06,Salvia 'Indigo spires',100940,0.615,411.71,179,23.1,1654.5,296.85,6.47,0.1010633,0.0011775,24.32,555.39,72.10,0
sage-light-d,7,2008-11-06,Salvia 'Indigo spires',100940,0.615,352.78,325,23.4,1856.8,205.44,11.62,0.1400970,0.0014083,28.22,523.23,72.10,0
sage-light-d,7,2008-11-06,Salvia 'Indigo spires',100940,0.615,330.42,524,23.7,2006.5,188.75,13.42,0.1699827,0.0015319,27.30,534.29,72.10,0
sage-light-d,7,2008-11-06,Salvia 'Indigo spires',100940,0.615,305.93,1179,24.6,2249.3,172.77,15.34,0.2101930,0.0017302,26.01,549.17,72.10,0
sage-light-d,7,2008-11-06,Salvia 'Indigo spires',100940,0.615,298.94,1889,25.9,2407.7,157.21,15.80,0.2027724,0.0018550,28.76,513.62,72.10,0
sage-light-e,8,2008-11-16,Salvia 'Indigo spires',101190,0.615,495.93,55,22.4,1114.0,303.51,1.24,0.0109281,0.0001762,5.41,762.65,106.10,0
sage-light-e,8,2008-11-16,Salvia 'Indigo spires',101190,0.615,479.28,91,22.5,1322.8,303.97,2.42,0.0235722,0.0003344,9.43,709.28,106.10,0
sage-light-e,8,2008-11-16,Salvia 'Indigo spires',101190,0.615,439.25,179,22.8,1569.7,227.80,5.37,0.0428806,0.0005216,15.47,629.07,106.10,0
sage-light-e,8,2008-11-16,Salvia 'Indigo spires',101190,0.615,370.75,325,23.1,1952.5,172.40,10.35,0.0892316,0.0008055,17.45,600.33,106.10,0
sage-light-e,8,2008-11-16,Salvia 'Indigo spires',100180,0.615,348.01,524,23.4,2042.8,144.65,12.02,0.1014443,0.0008733,21.75,542.34,106.10,0
sage-light-e,8,2008-11-16,Salvia 'Indigo spires',100180,0.615,315.29,1179,24.7,2326.8,129.84,14.36,0.1349456,0.0010852,27.68,461.16,106.10,0
sage-light-e,8,2008-11-16,Salvia 'Indigo spires',100180,0.615,308.65,1889,25.6,2375.0,93.95,14.80,0.1190236,0.0011186,25.94,483.52,106.10,0
sorghum-light,9,2008-07-08,Sorghum halepense,99848,0.615,462.55,55,20.7,1480.3,394.30,1.00,0.0263672,0.0002591,5.15,777.45,25.28,1
sorghum-light,9,2008-07-08,Sorghum halepense,99848,0.615,462.55,55,20.7,1480.3,394.30,1.00,0.0263672,0.0002591,1.28,880.25,25.28,1
sorghum-light,9,2008-07-08,Sorghum halepense,99852,0.615,436.96,91,21.2,1539.4,316.36,1.95,0.0277016,0.0002810,3.89,810.44,25.28,1
sorghum-light,9,2008-07-08,Sorghum halepense,99852,0.615,436.96,91,21.2,1539.4,316.36,1.95,0.0277016,0.0002810,6.42,743.07,25.28,1
sorghum-light,9,2008-07-08,Sorghum halepense,99792,0.615,386.49,179,21.9,1736.3,221.55,4.35,0.0444039,0.0004056,7.50,738.19,25.28,1
sorghum-light,9,2008-07-08,Sorghum halepense,99792,0.615,386.49,179,21.9,1736.3,221.55,4.35,0.0444039,0.0004056,10.08,677.45,25.28,1
sorghum-light,9,2008-07-08,Sorghum halepense,99784,0.615,332.87,376,22.0,1981.6,185.56,8.46,0.0986284,0.0006564,12.84,678.33,25.28,1
sorghum-light,9,2008-07-08,Sorghum halepense,99784,0.615,332.87,376,22.0,1981.6,185.56,8.46,0.0986284,0.0006564,15.29,633.30,25.28,1
sorghum-light,9,2008-07-08,Sorghum halepense,99767,0.615,319.28,524,22.3,2107.5,190.05,10.61,0.1442159,0.0008404,19.94,597.17,25.28,1
sorghum-light,9,2008-07-08,Sorghum halepense,99767,0.615,319.28,524,22.3,2107.5,190.05,10.61,0.1442159,0.0008404,21.63,570.30,25.28,1
sorghum-light,9,2008-07-08,Sorghum halepense,99670,0.615,311.55,1179,23.0,2320.9,211.82,13.67,0.2544421,0.0012129,22.15,629.11,25.28,1
sorghum-light,9,2008-07-08,Sorghum halepense,99670,0.615,311.55,1179,23.0,2320.9,211.82,13.67,0.2544421,0.0012129,24.79,595.25,25.28,1
sorghum-light,9,2008-07-08,Sorghum halepense,99628,0.615,303.11,1889,23.7,2621.7,244.47,16.04,0.5897636,0.0016406,26.40,612.18,25.28,1
sorghum-light,9,2008-07-08,Sorghum halepense,99628,0.615,303.11,1889,23.7,2621.7,244.47,16.04,0.5897636,0.0016406,26.13,615.32,25.28,1
sorghum-light,9,2008-07-10,Sorghum halepense,100000,0.615,492.22,55,21.0,1347.9,411.95,0.76,0.0171430,0.0002003,0.50,798.57,25.28,1
sorghum-light,9,2008-07-10,Sorghum halepense,100000,0.615,492.22,55,21.0,1347.9,411.95,0.76,0.0171430,0.0002003,1.51,763.49,25.28,1
sorghum-light,9,2008-07-10,Sorghum halepense,100000,0.615,464.83,91,21.4,1386.8,316.45,1.55,0.0177677,0.0002115,1.17,775.36,25.28,1
sorghum-light,9,2008-07-10,Sorghum halepense,100000,0.615,464.83,91,21.4,1386.8,316.45,1.55,0.0177677,0.0002115,1.17,775.36,25.28,1
sorghum-light,9,2008-07-10,Sorghum halepense,99980,0.615,388.60,179,21.9,1775.9,221.86,4.08,0.0410789,0.0003585,3.27,712.36,25.28,1
sorghum-light,9,2008-07-10,Sorghum halepense,99903,0.615,350.53,376,22.2,1982.5,200.95,8.13,0.0932888,0.0006575,8.25,646.56,25.28,1
sorghum-light,9,2008-07-10,Sorghum halepense,99903,0.615,350.53,376,22.2,1982.5,200.95,8.13,0.0932888,0.0006575,13.99,528.94,25.28,1
sorghum-light,9,2008-07-10,Sorghum halepense,99893,0.615,342.13,524,22.4,2014.4,188.86,9.54,0.1074144,0.0007523,14.96,541.15,25.28,1
sorghum-light,9,2008-07-10,Sorghum halepense,99893,0.615,342.13,524,22.4,2014.4,188.86,9.54,0.1074144,0.0007523,17.01,503.46,25.28,1
sorghum-light,9,2008-07-10,Sorghum halepense,99771,0.615,325.65,1179,22.8,2275.8,220.57,14.43,0.2552454,0.0012515,27.29,454.77,25.28,1
sorghum-light,9,2008-07-10,Sorghum halepense,99771,0.615,325.65,1179,22.8,2275.8,220.57,14.43,0.2552454,0.0012515,27.93,446.21,25.28,1
sorghum-light,9,2008-07-10,Sorghum halepense,99715,0.615,328.84,1889,23.6,2402.2,229.59,15.95,0.3066777,0.0015240,34.63,409.22,25.28,1
sorghum-light,9,2008-07-10,Sorghum halepense,99715,0.615,328.84,1889,23.6,2402.2,229.59,15.95,0.3066777,0.0015240,33.48,422.65,25.28,1
sage-Ci-a,10,2007-11-20,Salvia 'Indigo spires',100734,0.615,54.95,1179,22.4,2376.5,47.73,0.78,0.2093036,0.0012708,36.97,1909.82,49.70,0
sage-Ci-a,10,2007-11-20,Salvia 'Indigo spires',100736,0.615,54.84,1179,22.4,2439.4,48.43,0.79,0.2408315,0.0013057,50.64,1654.49,49.70,0
sage-Ci-a,10,2007-11-20,Salvia 'Indigo spires',100717,0.615,87.79,1179,23.4,2518.2,71.64,2.23,0.2664561,0.0016151,55.66,1730.86,49.70,0
sage-Ci-a,10,2007-11-20,Salvia 'Indigo spires',100715,0.615,87.11,1179,23.4,2539.6,71.32,2.27,0.2790602,0.0016294,66.10,1567.86,49.70,0
sage-Ci-a,10,2007-11-20,Salvia 'Indigo spires',100712,0.615,140.33,1179,23.6,2570.7,113.63,4.21,0.3092968,0.0017591,59.33,1730.86,49.70,0
sage-Ci-a,10,2007-11-20,Salvia 'Indigo spires',100723,0.615,139.70,1179,23.6,2585.2,113.48,4.26,0.3195505,0.0017693,72.02,1545.07,49.70,0
sage-Ci-a,10,2007-11-20,Salvia 'Indigo spires',100733,0.615,204.04,1179,23.7,2616.0,164.61,7.18,0.3646157,0.0019574,81.10,1513.72,49.70,0
sage-Ci-a,10,2007-11-20,Salvia 'Indigo spires',100714,0.615,203.90,1179,23.7,2618.6,164.61,7.19,0.3667448,0.0019595,95.89,1315.39,49.70,0
sage-Ci-a,10,2007-11-20,Salvia 'Indigo spires',100708,0.615,299.74,1179,23.6,2628.4,257.10,10.23,0.5186820,0.0022481,95.03,1486.37,49.70,0
sage-Ci-a,10,2007-11-20,Salvia 'Indigo spires',100710,0.615,299.85,1179,23.6,2631.3,257.52,10.22,0.5228987,0.0022506,99.60,1432.79,49.70,0
sage-Ci-a,10,2007-11-20,Salvia 'Indigo spires',100715,0.615,433.10,1179,23.7,2630.0,380.13,13.13,0.5463356,0.0022469,104.92,1370.10,49.70,0
sage-Ci-a,10,2007-11-20,Salvia 'Indigo spires',100715,0.615,432.68,1179,23.7,2625.3,379.00,13.17,0.5388562,0.0022427,94.27,1494.91,49.70,0
sage-Ci-a,10,2007-11-20,Salvia 'Indigo spires',100720,0.615,580.81,1179,23.7,2628.5,520.05,14.78,0.5422643,0.0022399,72.35,1751.95,49.70,0
sage-Ci-a,10,2007-11-20,Salvia 'Indigo spires',100739,0.615,581.18,1179,23.7,2617.9,519.08,14.76,0.5260342,0.0022305,93.08,1509.16,49.70,0
sage-Ci-b,11,2007-12-04,Salvia 'Indigo spires',100800,0.615,49.51,1179,22.6,2378.9,44.70,0.49,0.1981676,0.0011447,48.14,1613.08,101.00,0
sage-Ci-b,11,2007-12-04,Salvia 'Indigo spires',100775,0.615,48.88,1179,22.6,2476.6,43.55,0.52,0.1878169,0.0011436,54.68,1479.00,101.00,0
sage-Ci-b,11,2007-12-04,Salvia 'Indigo spires',100775,0.615,79.03,1179,23.0,2590.0,67.51,1.96,0.3377542,0.0014996,65.81,1474.16,101.00,0
sage-Ci-b,11,2007-12-04,Salvia 'Indigo spires',100785,0.615,78.16,1179,23.0,2615.3,67.04,2.01,0.3626319,0.0015152,61.56,1546.73,101.00,0
sage-Ci-b,11,2007-12-04,Salvia 'Indigo spires',100770,0.615,122.00,1179,23.1,2641.1,96.26,5.46,0.4312664,0.0017859,88.46,1302.07,101.00,0
sage-Ci-b,11,2007-12-04,Salvia 'Indigo spires',100760,0.615,121.01,1179,23.1,2650.3,95.53,5.53,0.4434721,0.0017926,80.09,1425.09,101.00,0
sage-Ci-b,11,2007-12-04,Salvia 'Indigo spires',100778,0.615,173.12,1179,23.1,2657.7,136.06,8.84,0.4979422,0.0019519,99.31,1257.84,101.00,0
sage-Ci-b,11,2007-12-04,Salvia 'Indigo spires',100750,0.615,171.82,1179,23.1,2657.7,134.36,8.94,0.4979587,0.0019519,83.72,1468.63,101.00,0
sage-Ci-b,11,2007-12-04,Salvia 'Indigo spires',100755,0.615,247.14,1179,23.1,2671.4,197.25,12.28,0.5195297,0.0019625,100.16,1246.09,101.00,0
sage-Ci-b,11,2007-12-04,Salvia 'Indigo spires',100734,0.615,246.27,1179,23.1,2673.3,196.37,12.35,0.5226667,0.0019640,86.36,1432.70,101.00,0
sage-Ci-b,11,2007-12-04,Salvia 'Indigo spires',100732,0.615,351.83,1179,23.1,2669.1,279.95,17.60,0.5157727,0.0019608,94.33,1324.88,101.00,0
sage-Ci-b,11,2007-12-04,Salvia 'Indigo spires',100728,0.615,350.57,1179,23.1,2674.1,279.20,17.70,0.5240056,0.0019646,100.94,1235.73,101.00,0
sage-Ci-b,11,2007-12-04,Salvia 'Indigo spires',100745,0.615,481.84,1179,23.1,2665.8,395.31,20.89,0.5103749,0.0019581,80.02,1518.39,101.00,0
sage-Ci-b,11,2007-12-04,Salvia 'Indigo spires',100740,0.615,484.51,1179,23.1,2661.5,397.87,20.69,0.5037513,0.0019549,90.87,1371.88,101.00,0
sage-Ci-c,12,2007-12-09,Salvia 'Indigo spires',101373,0.615,51.88,1179,22.6,2522.8,47.24,0.76,0.3426310,0.0017207,59.39,1739.59,101.40,0
sage-Ci-c,12,2007-12-09,Salvia 'Indigo spires',101375,0.615,51.65,1179,22.6,2556.4,47.25,0.77,0.3731189,0.0017445,57.29,1770.05,101.40,0
sage-Ci-c,12,2007-12-09,Salvia 'Indigo spires',101350,0.615,86.39,1179,23.2,2626.3,77.17,1.98,0.4633351,0.0019923,75.67,1611.17,101.40,0
sage-Ci-c,12,2007-12-09,Salvia 'Indigo spires',101359,0.615,86.23,1179,23.2,2642.1,77.30,1.99,0.4848668,0.0020049,49.26,1956.35,101.40,0
sage-Ci-c,12,2007-12-09,Salvia 'Indigo spires',101359,0.615,142.78,1179,23.2,2694.2,124.90,4.72,0.5860444,0.0021478,65.38,1786.29,101.40,0
sage-Ci-c,12,2007-12-09,Salvia 'Indigo spires',101352,0.615,142.45,1179,23.2,2708.5,125.09,4.74,0.6140184,0.0021596,101.72,1334.01,101.40,0
sage-Ci-c,12,2007-12-09,Salvia 'Indigo spires',101340,0.615,204.10,1179,23.5,2739.5,179.17,7.36,0.6797213,0.0022888,55.70,1937.56,101.40,0
sage-Ci-c,12,2007-12-09,Salvia 'Indigo spires',101349,0.615,203.23,1179,23.5,2760.1,179.38,7.43,0.7318489,0.0023068,77.39,1679.70,101.40,0
sage-Ci-c,12,2007-12-09,Salvia 'Indigo spires',101354,0.615,293.13,1179,23.5,2772.1,264.79,10.43,0.9362385,0.0024225,88.45,1593.91,101.40,0
sage-Ci-c,12,2007-12-09,Salvia 'Indigo spires',101340,0.615,292.30,1179,23.5,2772.6,263.82,10.50,0.9383984,0.0024231,84.15,1642.64,101.40,0
sage-Ci-c,12,2007-12-09,Salvia 'Indigo spires',101340,0.615,429.41,1179,23.5,2758.2,389.84,13.90,0.8817377,0.0024098,76.88,1725.38,101.40,0
sage-Ci-c,12,2007-12-09,Salvia 'Indigo spires',101336,0.615,429.42,1179,23.5,2750.5,388.98,13.90,0.8537036,0.0024027,51.85,2010.15,101.40,0
sage-Ci-c,12,2007-12-09,Salvia 'Indigo spires',101330,0.615,582.43,1179,23.6,2748.6,528.88,15.73,0.6968548,0.0024001,89.49,1581.54,101.40,0
sage-Ci-c,12,2007-12-09,Salvia 'Indigo spires',101330,0.615,581.93,1179,23.6,2751.3,528.59,15.77,0.7033895,0.0024029,95.19,1516.60,101.40,0
sage-Ci-c,12,2007-12-09,Salvia 'Indigo spires',101320,0.615,740.43,1179,23.6,2745.5,674.68,17.44,0.6172157,0.0023977,108.47,1365.35,101.40,0
sage-Ci-c,12,2007-12-09,Salvia 'Indigo spires',101333,0.615,740.49,1179,23.6,2743.9,674.51,17.44,0.6142056,0.0023960,111.23,1334.11,101.40,0
sage-Ci-c,12,2007-12-09,Salvia 'Indigo spires',101325,0.615,861.92,1179,23.8,2735.8,791.49,17.31,0.5693349,0.0023862,82.13,1664.56,101.40,0
sage-Ci-c,12,2007-12-09,Salvia 'Indigo spires',101315,0.615,861.82,1179,23.8,2731.3,793.29,17.32,0.5904437,0.0023821,102.62,1431.11,101.40,0
sage-Ci-c,12,2007-12-09,Salvia 'Indigo spires',101310,0.615,1068.22,1179,23.8,2713.4,995.16,17.31,0.5604300,0.0023658,103.84,1417.14,101.40,0
sage-Ci-c,12,2007-12-09,Salvia 'Indigo spires',101311,0.615,1067.12,1179,23.8,2703.3,992.08,17.42,0.5447042,0.0023566,62.64,1886.50,101.40,0
